{
  "project_info": {
    "project_number": "178678444877",
    "firebase_url": "https://manna-36eab.firebaseio.com",
    "project_id": "manna-36eab",
    "storage_bucket": "manna-36eab.appspot.com"
  },
  "client": [
    {
      "client_info": {
        "mobilesdk_app_id": "1:178678444877:android:4c8d599e1ab56318097d04",
        "android_client_info": {
          "package_name": "com.sinidevicetracker.sini"
        }
      },
      "oauth_client": [
        {
          "client_id": "178678444877-69teiuq5si5pnh7foeuv17kp87nijv66.apps.googleusercontent.com",
          "client_type": 1,
          "android_info": {
            "package_name": "com.sinidevicetracker.sini",
            "certificate_hash": "337ce7ef9c0ea9cc63d3c895b47fdaa19ae8df7b"
          }
        },
        {
          "client_id": "178678444877-8i32a6mgkboof4e6bi64q5kb131netug.apps.googleusercontent.com",
          "client_type": 3
        }
      ],
      "api_key": [
        {
          "current_key": "AIzaSyDqEZsDBCYTZq19j8HZVVMh8LleostQmQc"
        }
      ],
      "services": {
        "appinvite_service": {
          "other_platform_oauth_client": [
            {
              "client_id": "178678444877-8i32a6mgkboof4e6bi64q5kb131netug.apps.googleusercontent.com",
              "client_type": 3
            }
          ]
        }
      }
    },
    {
      "client_info": {
        "mobilesdk_app_id": "1:178678444877:android:04a84127f58cfd9c",
        "android_client_info": {
          "package_name": "id.vincenttp.manna"
        }
      },
      "oauth_client": [
        {
          "client_id": "178678444877-i6914aif2vht1bp14c62vubtfdhuoojf.apps.googleusercontent.com",
          "client_type": 1,
          "android_info": {
            "package_name": "id.vincenttp.manna",
            "certificate_hash": "939b413211d7056a6bff486559b5df223e6f840b"
          }
        },
        {
          "client_id": "178678444877-qstic70hf5fpme5go179fgqtdv214chm.apps.googleusercontent.com",
          "client_type": 1,
          "android_info": {
            "package_name": "id.vincenttp.manna",
            "certificate_hash": "f4405deb8e831e812cff326fbbea17d8ae920605"
          }
        },
        {
          "client_id": "178678444877-6qtbi07sb8fv7ueoa4opksdkfkl2fj70.apps.googleusercontent.com",
          "client_type": 1,
          "android_info": {
            "package_name": "id.vincenttp.manna",
            "certificate_hash": "92724fd5de3ad129cdf721a65ba0e69d8dd942e6"
          }
        },
        {
          "client_id": "178678444877-8i32a6mgkboof4e6bi64q5kb131netug.apps.googleusercontent.com",
          "client_type": 3
        }
      ],
      "api_key": [
        {
          "current_key": "AIzaSyDqEZsDBCYTZq19j8HZVVMh8LleostQmQc"
        }
      ],
      "services": {
        "appinvite_service": {
          "other_platform_oauth_client": [
            {
              "client_id": "178678444877-8i32a6mgkboof4e6bi64q5kb131netug.apps.googleusercontent.com",
              "client_type": 3
            }
          ]
        }
      }
    }
  ],
  "configuration_version": "1"
}